SRR747827
SRR747828
SRR747829
SRR747830
SRR747831
SRR747832
SRR747833
SRR747834
SRR765059
SRR765060
SRR765061
SRR765062
SRR765063
SRR765064
SRR765116
SRR765118
SRR765119
SRR765120
SRR765121
SRR765122
SRR765123
SRR765124
SRR765125
SRR765126

